{
  "verbose": true,
  "testURL": "http://localhost/",
  "setupFiles": [
    "raf/polyfill",
    "<rootDir>/src/js/tests/setupTests.js"
  ],
  "snapshotSerializers": [
    "enzyme-to-json/serializer"
  ],
  "collectCoverageFrom": [
    "<rootDir>/src/js/tests/**/*.test.ts",
    "!<rootDir>/src/js/tests/__mocks__/**"
  ],
  "moduleFileExtensions": [
    "ts",
    "js"
  ],
  "transform": {
    "^.+\\.(js|ts)x?$": "babel-jest"
  }
}